{
  "cityList": {
    "personal": [
      "24 परगना",
      "आगरा",
      "अहमदाबाद",
      "अजमेर",
      "अलवर",
      "अंबाला",
      "आनंद",
      "अनुगुल",
      "आसनसोल",
      "औरंगाबाद",
      "बदायूं",
      "बहरुच",
      "बालासोर",
      "बैंगलोर",
      "बाराबंकी",
      "बारडोली",
      "बरेली"
    ]
  }
}